{
  "companies": [
    {
      "id": 1,
      "name": "Wedoogift",
      "balance": 800
    },
    {
      "id": 2,
      "name": "Wedoofood",
      "balance": 3000
    }
  ],
  "users": [
    {
      "id": 1,
      "balance": [
        {
          "wallet_id": 1,
          "amount": 100
        }
      ]
    },
    {
      "id": 2,
      "balance": [
        {
          "wallet_id": 2,
          "amount": 200
        }
      ]
    },
    {
      "id": 3,
      "balance": []
    }
  ],
  "distributions": [
    {
      "id": 1,
      "wallet_id": 2,
      "amount": 100,
      "start_date": "2021-01-15",
      "end_date": "2022-02-28",
      "company_id": 1,
      "user_id": 2
    },
    {
      "id": 1,
      "wallet_id": 2,
      "amount": 100,
      "start_date": "2021-01-15",
      "end_date": "2022-02-28",
      "company_id": 1,
      "user_id": 2
    }
  ]
}